[
    {
        "name": "Coke",
        "prize": "2$",
        "id": 1,
        "imageUrl": "https://farm1.staticflickr.com/71/203324363_b448827eb0.jpg",
        "volume": [
            "33cl",
            "50cl",
            "250cl"
        ]
    },
    {
        "name": "Fanta",
        "prize": "2$",
        "id": 2,
        "imageUrl": "https://farm1.staticflickr.com/684/32876893826_130576f75a.jpg",
        "volume": [
            "33cl",
            "50cl",
            "250cl"
        ]
    },
    {
        "name": "Pepsi",
        "prize": "2$",
        "id": 3,
        "imageUrl": "https://farm4.staticflickr.com/3344/3593103557_bf47c0a3a2.jpg",
        "volume": [
            "33cl",
            "50cl",
            "250cl"
        ]
    },
    {
        "name": "Red bull",
        "prize": "3$",
        "id": 4,
        "imageUrl": "https://farm3.staticflickr.com/2391/2507916617_254348d40c.jpg",
        "volume": [
            "33cl",
            "50cl",
            "250cl"
        ]
    }
]